[
  {
    "from": { "machine": "tr3960x", "account": "samuelsung" },
    "hosts": [
      { "machine": "xps-15-9500", "account": "samuelsung" },
      { "machine": "xps-15-9500", "account": "samuelsung_play" },
      { "machine": "blade-stealth", "account": "samuelsung" },
      { "machine": "blade-stealth", "account": "samuelsung_play" },
      { "machine": "garemarudo", "account": "samuelsung" },
      { "machine": "gitlab-runner", "account": "samuelsung" },
      { "machine": "reverseproxy", "account": "samuelsung" },
      { "machine": "jellyfin", "account": "samuelsung" },
      { "machine": "bitwarden", "account": "samuelsung" },
      { "machine": "tataru", "account": "samuelsung" },
      { "machine": "arufino", "account": "samuelsung" },
      { "machine": "minfiria", "account": "samuelsung" },
      { "machine": "minimal-iso", "account": "samuelsung" }
    ],
    "services": [
      "gitlab.com"
    ]
  },
  {
    "from": { "machine": "tr3960x", "account": "samuelsung_play" },
    "hosts": [
      { "machine": "xps-15-9500", "account": "samuelsung" },
      { "machine": "xps-15-9500", "account": "samuelsung_play" },
      { "machine": "blade-stealth", "account": "samuelsung" },
      { "machine": "blade-stealth", "account": "samuelsung_play" },
      { "machine": "garemarudo", "account": "samuelsung" },
      { "machine": "gitlab-runner", "account": "samuelsung" },
      { "machine": "reverseproxy", "account": "samuelsung" },
      { "machine": "jellyfin", "account": "samuelsung" },
      { "machine": "bitwarden", "account": "samuelsung" },
      { "machine": "tataru", "account": "samuelsung" },
      { "machine": "arufino", "account": "samuelsung" },
      { "machine": "minfiria", "account": "samuelsung" },
      { "machine": "minimal-iso", "account": "samuelsung" }
    ],
    "services": [
      "gitlab.com"
    ]
  },
  {
    "from": { "machine": "xps-15-9500", "account": "samuelsung" },
    "hosts": [
      { "machine": "tr3960x", "account": "samuelsung" },
      { "machine": "tr3960x", "account": "samuelsung_play" },
      { "machine": "blade-stealth", "account": "samuelsung" },
      { "machine": "blade-stealth", "account": "samuelsung_play" },
      { "machine": "garemarudo", "account": "samuelsung" },
      { "machine": "gitlab-runner", "account": "samuelsung" },
      { "machine": "reverseproxy", "account": "samuelsung" },
      { "machine": "jellyfin", "account": "samuelsung" },
      { "machine": "bitwarden", "account": "samuelsung" },
      { "machine": "tataru", "account": "samuelsung" },
      { "machine": "arufino", "account": "samuelsung" },
      { "machine": "minfiria", "account": "samuelsung" },
      { "machine": "minimal-iso", "account": "samuelsung" }
    ],
    "services": [
      "gitlab.com"
    ]
  },
  {
    "from": { "machine": "xps-15-9500", "account": "samuelsung_play" },
    "hosts": [
      { "machine": "tr3960x", "account": "samuelsung" },
      { "machine": "tr3960x", "account": "samuelsung_play" },
      { "machine": "blade-stealth", "account": "samuelsung" },
      { "machine": "blade-stealth", "account": "samuelsung_play" },
      { "machine": "garemarudo", "account": "samuelsung" },
      { "machine": "gitlab-runner", "account": "samuelsung" },
      { "machine": "reverseproxy", "account": "samuelsung" },
      { "machine": "jellyfin", "account": "samuelsung" },
      { "machine": "bitwarden", "account": "samuelsung" },
      { "machine": "tataru", "account": "samuelsung" },
      { "machine": "arufino", "account": "samuelsung" },
      { "machine": "minfiria", "account": "samuelsung" },
      { "machine": "minimal-iso", "account": "samuelsung" }
    ],
    "services": [
      "gitlab.com"
    ]
  },
  {
    "from": { "machine": "blade-stealth", "account": "samuelsung" },
    "hosts": [
      { "machine": "tr3960x", "account": "samuelsung" },
      { "machine": "tr3960x", "account": "samuelsung_play" },
      { "machine": "xps-15-9500", "account": "samuelsung" },
      { "machine": "xps-15-9500", "account": "samuelsung_play" },
      { "machine": "garemarudo", "account": "samuelsung" },
      { "machine": "gitlab-runner", "account": "samuelsung" },
      { "machine": "reverseproxy", "account": "samuelsung" },
      { "machine": "jellyfin", "account": "samuelsung" },
      { "machine": "bitwarden", "account": "samuelsung" },
      { "machine": "tataru", "account": "samuelsung" },
      { "machine": "arufino", "account": "samuelsung" },
      { "machine": "minfiria", "account": "samuelsung" },
      { "machine": "minimal-iso", "account": "samuelsung" }
    ],
    "services": [
      "gitlab.com"
    ]
  },
  {
    "from": { "machine": "blade-stealth", "account": "samuelsung_play" },
    "hosts": [
      { "machine": "tr3960x", "account": "samuelsung" },
      { "machine": "tr3960x", "account": "samuelsung_play" },
      { "machine": "xps-15-9500", "account": "samuelsung" },
      { "machine": "xps-15-9500", "account": "samuelsung_play" },
      { "machine": "garemarudo", "account": "samuelsung" },
      { "machine": "gitlab-runner", "account": "samuelsung" },
      { "machine": "reverseproxy", "account": "samuelsung" },
      { "machine": "jellyfin", "account": "samuelsung" },
      { "machine": "bitwarden", "account": "samuelsung" },
      { "machine": "tataru", "account": "samuelsung" },
      { "machine": "arufino", "account": "samuelsung" },
      { "machine": "minfiria", "account": "samuelsung" },
      { "machine": "minimal-iso", "account": "samuelsung" }
    ],
    "services": [
      "gitlab.com"
    ]
  },
  {
    "from": { "machine": "tataru", "account": "restic" },
    "hosts": [],
    "services": [
      "restic-vault",
      "restic-synology"
    ]
  },
  {
    "from": { "machine": "garemarudo", "account": "samuelsung" },
    "hosts": [
      { "machine": "minimal-iso", "account": "samuelsung" }
    ],
    "services": [
      "garemarudo-scm",
      "gitlab.com"
    ]
  }
]
