{
  "suggest.noselect": false,
  "tsserver.enableJavascript": true,
  "eslint.enable": true,
  "eslint.filetypes": ["javascript", "typescript", "typescriptreact", "javascriptreact", "typescript.tsx"],
  "eslint.packageManager": "npm",
  "eslint.autoFixOnSave": true,
  "prettier.eslintIntegration": true,
  "prettier.stylelintIntegration": true,
  "css.trace.server": "messages",
  "scss.validate": true,
  "rust.clippy_preference": "on",
  "rust-client.revealOutputChannelOn": "info",
  "coc.preferences.formatOnType": true,
  "rust-client.disableRustup": true
}
